fetch_stage_tb.vcd
$date
	Wed Aug 28 21:14:27 2024
$end
$version
	Icarus Verilog
$end
$timescale
	1ns
$end
$scope module fetch_stage_tb $end
$var wire 32 ! nextPC [31:0] $end
$var wire 32 " instruction [31:0] $end
$var wire 32 # PC [31:0] $end
$var reg 1 $ clk $end
$var reg 32 % pcAdder [31:0] $end
$var reg 1 & reset $end
$scope module im1 $end
$var wire 32 ' address [31:0] $end
$var reg 32 ( instruction [31:0] $end
$var integer 32 ) i [31:0] $end
$upscope $end
$scope module pc2 $end
$var wire 1 $ clk $end
$var wire 1 & reset $end
$var wire 32 * nextPC [31:0] $end
$var reg 32 + PC [31:0] $end
$upscope $end
$scope module pca1 $end
$var wire 32 , PC [31:0] $end
$var reg 32 - incrementedPC [31:0] $end
$upscope $end
$upscope $end
$enddefinitions $end
$comment Show the parameter values. $end
$dumpall
$end
#0
$dumpvars
b100 -
b0 ,
b0 +
b100 *
b1000000 )
b1100010000000101100111 (
b0 '
1&
b0 %
0$
b0 #
b1100010000000101100111 "
b100 !
$end
#5
b1000 !
b1000 *
b1000 -
b1000000001100010000000101100111 "
b1000000001100010000000101100111 (
b100 #
b100 '
b100 +
b100 ,
0&
1$
#10
0$
#15
b1100 !
b1100 *
b1100 -
b10001101010110 "
b10001101010110 (
b1000 #
b1000 '
b1000 +
b1000 ,
1$
#20
0$
#25
b10000 !
b10000 *
b10000 -
b1000001000100100011 "
b1000001000100100011 (
b1100 #
b1100 '
b1100 +
b1100 ,
1$
#30
0$
#35
b10100 !
b10100 *
b10100 -
b11111111111111111111111111111111 "
b11111111111111111111111111111111 (
b10000 #
b10000 '
b10000 +
b10000 ,
1$
#40
0$
#45
b11000 !
b11000 *
b11000 -
b0 "
b0 (
b10100 #
b10100 '
b10100 +
b10100 ,
1$
#50
0$
#55
b11100 !
b11100 *
b11100 -
b11000 #
b11000 '
b11000 +
b11000 ,
1$
#60
0$
#65
b100000 !
b100000 *
b100000 -
b11100 #
b11100 '
b11100 +
b11100 ,
1$
#70
0$
#75
b100100 !
b100100 *
b100100 -
b100000 #
b100000 '
b100000 +
b100000 ,
1$
#80
0$
#85
b101000 !
b101000 *
b101000 -
b100100 #
b100100 '
b100100 +
b100100 ,
1$
#90
0$
#95
b101100 !
b101100 *
b101100 -
b101000 #
b101000 '
b101000 +
b101000 ,
1$
#100
0$
#105
b110000 !
b110000 *
b110000 -
b101100 #
b101100 '
b101100 +
b101100 ,
1$
#110
0$
#115
b110100 !
b110100 *
b110100 -
b110000 #
b110000 '
b110000 +
b110000 ,
1$
#120
0$
#125
b111000 !
b111000 *
b111000 -
b110100 #
b110100 '
b110100 +
b110100 ,
1$
#130
0$
#135
b111100 !
b111100 *
b111100 -
b111000 #
b111000 '
b111000 +
b111000 ,
1$
#140
0$
#145
b1000000 !
b1000000 *
b1000000 -
b111100 #
b111100 '
b111100 +
b111100 ,
1$
#150
0$
#155
b1000100 !
b1000100 *
b1000100 -
b1000000 #
b1000000 '
b1000000 +
b1000000 ,
1$
#160
0$
#165
b1001000 !
b1001000 *
b1001000 -
b1000100 #
b1000100 '
b1000100 +
b1000100 ,
1$
#170
0$
#175
b1001100 !
b1001100 *
b1001100 -
b1001000 #
b1001000 '
b1001000 +
b1001000 ,
1$
#180
0$
#185
b1010000 !
b1010000 *
b1010000 -
b1001100 #
b1001100 '
b1001100 +
b1001100 ,
1$
#190
0$
#195
b1010100 !
b1010100 *
b1010100 -
b1010000 #
b1010000 '
b1010000 +
b1010000 ,
1$
#200
0$
#205
b1011000 !
b1011000 *
b1011000 -
b1010100 #
b1010100 '
b1010100 +
b1010100 ,
1$
#210
0$
#215
b1011100 !
b1011100 *
b1011100 -
b1011000 #
b1011000 '
b1011000 +
b1011000 ,
1$
#220
0$
#225
b1100000 !
b1100000 *
b1100000 -
b1011100 #
b1011100 '
b1011100 +
b1011100 ,
1$
#230
0$
#235
b1100100 !
b1100100 *
b1100100 -
b1100000 #
b1100000 '
b1100000 +
b1100000 ,
1$
#240
0$
#245
b1101000 !
b1101000 *
b1101000 -
b1100100 #
b1100100 '
b1100100 +
b1100100 ,
1$
#250
0$
#255
b1101100 !
b1101100 *
b1101100 -
b1101000 #
b1101000 '
b1101000 +
b1101000 ,
1$
#260
0$
#265
b1110000 !
b1110000 *
b1110000 -
b1101100 #
b1101100 '
b1101100 +
b1101100 ,
1$
#270
0$
#275
b1110100 !
b1110100 *
b1110100 -
b1110000 #
b1110000 '
b1110000 +
b1110000 ,
1$
#280
0$
#285
b1111000 !
b1111000 *
b1111000 -
b1110100 #
b1110100 '
b1110100 +
b1110100 ,
1$
#290
0$
#295
b1111100 !
b1111100 *
b1111100 -
b1111000 #
b1111000 '
b1111000 +
b1111000 ,
1$
#300
0$
#305
b10000000 !
b10000000 *
b10000000 -
b1111100 #
b1111100 '
b1111100 +
b1111100 ,
1$
